{
  "namespace": "Sandbox.Foundation.Serialization",
  "references": [
    "Sandbox.Foundation.Serialization-SXA"
  ],
  "items": {
    "includes": [
      {
        "name": "Foundation-Templates",
        "path": "/sitecore/templates/Foundation/Sandbox",
        "database": "master",
        "rules": [
          {
            "path": "/Headless",
            "scope": "SingleItem"
          },
          {
            "path": "*",
            "scope": "ignored"
          }
        ]
      },
      {
        "name": "Foundation-BranchTemplates",
        "path": "/sitecore/templates/Branches/Foundation/Sandbox",
        "database": "master",
        "rules": [
          {
            "path": "/Headless",
            "scope": "SingleItem"
          },
          {
            "path": "*",
            "scope": "ignored"
          }
        ]
      },
      {
        "name": "Foundation-Renderings",
        "path": "/sitecore/layout/renderings/Foundation/Sandbox",
        "database": "master",
        "rules": [
          {
            "path": "/Headless",
            "scope": "SingleItem"
          },
          {
            "path": "*",
            "scope": "ignored"
          }
        ]
      },
      {
        "name": "Foundation-Layouts",
        "path": "/sitecore/layout/layouts/Foundation/Sandbox",
        "database": "master",
        "rules": [
          {
            "path": "/Headless",
            "scope": "SingleItem"
          },
          {
            "path": "*",
            "scope": "ignored"
          }
        ]
      },
      {
        "name": "Foundation-PlaceholderSettings",
        "path": "/sitecore/layout/placeholder settings/Foundation/Sandbox",
        "database": "master",
        "rules": [
          {
            "path": "/Headless",
            "scope": "SingleItem"
          },
          {
            "path": "*",
            "scope": "ignored"
          }
        ]
      },
      {
        "name": "Foundation-MediaLibrary",
        "path": "/sitecore/media library/Foundation/Sandbox",
        "database": "master",
        "rules": [
          {
            "path": "/Headless",
            "scope": "SingleItem"
          },
          {
            "path": "*",
            "scope": "ignored"
          }
        ]
      },


      {
        "name": "Feature-Templates",
        "path": "/sitecore/templates/Feature/Sandbox",
        "database": "master",
        "rules": [
          {
            "path": "/Headless",
            "scope": "SingleItem"
          },
          {
            "path": "*",
            "scope": "ignored"
          }
        ]
      },
      {
        "name": "Feature-BranchTemplates",
        "path": "/sitecore/templates/Branches/Feature/Sandbox",
        "database": "master",
        "rules": [
          {
            "path": "/Headless",
            "scope": "SingleItem"
          },
          {
            "path": "*",
            "scope": "ignored"
          }
        ]
      },
      {
        "name": "Feature-Renderings",
        "path": "/sitecore/layout/renderings/Feature/Sandbox",
        "database": "master",
        "rules": [
          {
            "path": "/Headless",
            "scope": "SingleItem"
          },
          {
            "path": "*",
            "scope": "ignored"
          }
        ]
      },
      {
        "name": "Feature-Layouts",
        "path": "/sitecore/layout/layouts/Feature/Sandbox",
        "database": "master",
        "rules": [
          {
            "path": "/Headless",
            "scope": "SingleItem"
          },
          {
            "path": "*",
            "scope": "ignored"
          }
        ]
      },
      {
        "name": "Feature-PlaceholderSettings",
        "path": "/sitecore/layout/placeholder settings/Feature/Sandbox",
        "database": "master",
        "rules": [
          {
            "path": "/Headless",
            "scope": "SingleItem"
          },
          {
            "path": "*",
            "scope": "ignored"
          }
        ]
      },
      {
        "name": "Feature-Settings",
        "path": "/sitecore/system/Settings/Feature/Sandbox",
        "database": "master",
        "rules": [
          {
            "path": "/Headless",
            "scope": "SingleItem"
          },
          {
            "path": "*",
            "scope": "ignored"
          }
        ]
      },
      {
        "name": "Feature-MediaLibrary",
        "path": "/sitecore/media library/Feature/Sandbox",
        "database": "master",
        "rules": [
          {
            "path": "/Headless",
            "scope": "SingleItem"
          },
          {
            "path": "*",
            "scope": "ignored"
          }
        ]
      },

      {
        "name": "Project-Templates",
        "path": "/sitecore/templates/Project/Sandbox",
        "database": "master",
        "rules": [
          {
            "path": "/Headless",
            "scope": "SingleItem"
          },
          {
            "path": "*",
            "scope": "ignored"
          }
        ]
      },
      {
        "name": "Project-Renderings",
        "path": "/sitecore/layout/renderings/Project/Sandbox",
        "database": "master",
        "rules": [
          {
            "path": "/Headless",
            "scope": "SingleItem"
          },
          {
            "path": "*",
            "scope": "ignored"
          }
        ]
      },
      {
        "name": "Project-Layouts",
        "path": "/sitecore/layout/layouts/Project/Sandbox",
        "database": "master",
        "rules": [
          {
            "path": "/Headless",
            "scope": "SingleItem"
          },
          {
            "path": "*",
            "scope": "ignored"
          }
        ]
      },
      {
        "name": "Project-PlaceholderSettings",
        "path": "/sitecore/layout/placeholder settings/Project/Sandbox",
        "database": "master",
        "rules": [
          {
            "path": "/Headless",
            "scope": "SingleItem"
          },
          {
            "path": "*",
            "scope": "ignored"
          }
        ]
      }
    ]
  }
}
