{
  "namespace": "Sandbox.Project.Routes",
  "references": [
    "Sandbox.Foundation.*",
    "Sandbox.Feature.*"
  ],
  "items": {
    "includes": [
      {
        "name": "Templates-Routes",
        "path": "/sitecore/templates/Project/Sandbox/Headless/Routes",
        "database": "master"
      }
    ]
  },
  "leprechaun": {
    "configuration": {
      "@extends": "Sandbox.Base",
      "@name": "Project.Routes"
    }
  }
}
